Analyzing name changes after marriage using a non-representative survey · Monica Alexander
…
where \(A\) is the total number of age groups. There are similar set ups for the other \(\alpha\)s.

Using the estimates from the regression, post-stratify based on population weights in each age, year of marriage, education and state group, derived from the American Community Survey.

MRP in R using brms

Now to work through the example in R. A few code snippets are included in this post, but the full code file is available here. In order to reproduce the results, you will need to download the MNCS file from OSF, and also grab the 2017 5-year ACS data from IPUMS-USA.1

Data

First, I loaded in the MNCS data and did a bit of tidying up. I made a binary outcome variable kept_name, which indicates whether or not the respondent kept their original name after marriage. I also created a five year age group variable, a decade married variable (1979-1988, 1989-1998, … 2009-2018), and a three-group education variable (BA)2. The resulting data looks like this:

d_mncs

## # A tibble: 4,413 x 5
##    kept_name state_name     age_group decade_married educ_group
##        <dbl> <chr>          <chr>     <chr>          <chr>     
##  1         0 ohio           50        1979           >BA       
##  2         0 virginia       35        1999           >BA       
##  3         1 new york       35        2009           >BA       
##  4         0 rhode island   55        1999           >BA       
##  5         0 illinois       35        2009           >BA       
##  6         0 north carolina 25        2009           >BA       
##  7         1 iowa           35        1999           >BA       
##  8         1 texas          35        2009           >BA       
##  9         0 south dakota   35        1999           >BA       
## 10         0 texas          35        2009           >BA       
## # … with 4,403 more rows

Next, I loaded in the ACS data that I got from IPUMS-USA. I extracted information on sex, age, marital status, year married, state, and education. I then restricted the data to just be ever-married women, and calculated new age, decade married and education variables to be consistent with those in the MNCS data. I then summed up to get the population counts in each age, education, decade married and state group. The data look like this:

cell_counts

## # A tibble: 6,058 x 5
##    state_name age_group decade_married educ_group     n
##    <chr>      <chr>     <chr>          <chr>      <dbl>
##  1 alabama    25        1999           <BA        19012
##  2 alabama    25        2009           <BA        37488
##  3 alabama    25        1999           >BA          959
##  4 alabama    25        2009           >BA         5319
##  5 alabama    25        1999           BA          2986
##  6 alabama    25        2009           BA         14261
##  7 alaska     25        1999           <BA         3320
##  8 alaska     25        2009           <BA         7001
##  9 alaska     25        1999           >BA          159
## 10 alaska     25        2009           >BA          435
## # … with 6,048 more rows

These counts can be used to get proportions by group, which are in turn used in the post-stratification step. For example, to get the proportions in each age group:

age_prop <- cell_counts %>% 
  group_by(age_group) %>% 
  mutate(prop = n/sum(n)) %>% 
  ungroup()

age_prop

## # A tibble: 6,058 x 6
##    state_name age_group decade_married educ_group     n      prop
##    <chr>      <chr>     <chr>          <chr>      <dbl>     <dbl>
##  1 alabama    25        1999           <BA        19012 0.00414  
##  2 alabama    25        2009           <BA        37488 0.00816  
##  3 alabama    25        1999           >BA          959 0.000209 
##  4 alabama    25        2009           >BA         5319 0.00116  
##  5 alabama    25        1999           BA          2986 0.000650 
##  6 alabama    25        2009           BA         14261 0.00310  
##  7 alaska     25        1999           <BA         3320 0.000723 
##  8 alaska     25        2009           <BA         7001 0.00152  
##  9 alaska     25        1999           >BA          159 0.0000346
## 10 alaska     25        2009           >BA          435 0.0000947
## # … with 6,048 more rows
…
