Exploring the AustralianPoliticans R Package · Monica Alexander
…
  # join on MP and senate info
  left_join(by_state_senators) %>% 
  left_join(by_division_mps) %>% 
  group_by(uniqueID) %>% 
  # just keep the initial election
  filter(row_number()==1) %>% 
  mutate(year_first_active = ifelse(is.na(senatorsFrom), year(mpsFrom), year(senatorsFrom)), 
         age_active = ifelse(is.na(senatorsFrom), 
                            interval(birth_final, mpsFrom)/years(1), 
                            interval(birth_final, senatorsFrom)/years(1)),
         birth_year = year(birth_final)) %>% 
  ungroup()
deaths

## # A tibble: 1,776 x 22
##    uniqueID displayName deathDate  birth_final age_at_death senatorsState
##    <chr>    <chr>       <date>     <date>             <dbl> <chr>        
##  1 Abbott1… Abbott, Ri… 1940-02-28 1859-06-30          80.7 VIC          
##  2 Abbott1… Abbott, Pe… 1940-09-09 1869-05-14          71.3 NSW          
##  3 Abbott1… Abbott, Mac 1960-12-30 1877-07-03          83.5 NSW          
##  4 Abbott1… Abbott, Au… 1975-04-30 1886-01-04          89.3 <NA>         
##  5 Abbott1… Abbott, Jo… 1965-05-07 1891-10-18          73.6 <NA>         
##  6 Abbott1… Abbott, To… NA         1957-11-04          NA   <NA>         
##  7 Abel1939 Abel, John  NA         1939-06-25          NA   <NA>         
##  8 Abetz19… Abetz, Eric NA         1958-01-25          NA   TAS          
##  9 Adams19… Adams, Jud… 2012-03-31 1943-04-11          69.0 WA           
## 10 Adams19… Adams, Dick NA         1951-04-29          NA   <NA>         
## # … with 1,766 more rows, and 16 more variables: senatorsFrom <date>,
## #   senatorsTo <date>, senatorsEndReason <chr>, senatorsSec15Sel <int>,
## #   senatorsComments <chr>, mpsDivision <chr>, mpsState <chr>,
## #   mpsEnteredAtByElection <chr>, mpsFrom <date>, mpsTo <date>,
## #   mpsEndReason <chr>, mpsChangedSeat <int>, mpsComments <chr>,
## #   year_first_active <dbl>, age_active <dbl>, birth_year <dbl>
…
e45 <- read_csv("e45.csv")    

## Parsed with column specification:
## cols(
##   Year = col_character(),
##   e45 = col_double()
## )

e45 <- e45 %>% 
  mutate(start_year = as.numeric(str_sub(Year, 1,4)),
         end_year = as.numeric(str_sub(Year, 6,9)),
         year = floor((start_year+end_year)/2))
e45

## # A tibble: 37 x 5
##    Year        e45 start_year end_year  year
##    <chr>     <dbl>      <dbl>    <dbl> <dbl>
##  1 1881–1890  68         1881     1890  1885
##  2 1891–1900  69         1891     1900  1895
##  3 1901–1910  69.8       1901     1910  1905
##  4 1920–1922  71         1920     1922  1921
##  5 1932–1934  71.9       1932     1934  1933
##  6 1946–1948  71.8       1946     1948  1947
##  7 1953–1955  72.2       1953     1955  1954
##  8 1960–1962  72.4       1960     1962  1961
##  9 1965–1967  72         1965     1967  1966
## 10 1970–1972  72.1       1970     1972  1971
## # … with 27 more rows
…
